Visualizations and reports
…
  # 3
  arrange(wages, desc(Age), desc(Salary))

## # A tibble: 485 x 28
##    Player Salary NBA_Country NBA_DraftNumber   Age Tm        G    MP   PER
##    <fct>   <int> <fct>                 <int> <int> <fct> <int> <int> <dbl>
##  1 Vince~ 8.00e6 USA                       5    41 SAC      55   971  10.6
##  2 Manu ~ 2.50e6 Argentina                57    40 SAS      62  1241  12.4
##  3 Jason~ 2.33e6 USA                      10    40 MIL      47   762   8  
##  4 Dirk ~ 5.00e6 Germany                   9    39 DAL      77  1900  16.7
##  5 Damie~ 2.12e6 USA                      62    38 IND      19   152   4.9
##  6 Pau G~ 1.60e7 Spain                     3    37 SAS      74  1753  19  
##  7 Jamal~ 1.09e7 USA                       8    37 MIN      76  1566  13.5
##  8 Richa~ 2.50e6 USA                      13    37 DEN      20   163   6.3
##  9 Udoni~ 2.33e6 USA                      62    37 MIA      14    72   1.8
## 10 Nick ~ 2.33e6 USA                      12    37 OKC      13    72  13.8
## # ... with 475 more rows, and 19 more variables: TS. <dbl>, X3PAr <dbl>,
## #   FTr <dbl>, ORB. <dbl>, DRB. <dbl>, TRB. <dbl>, AST. <dbl>, STL. <dbl>,
## #   BLK. <dbl>, TOV. <dbl>, USG. <dbl>, OWS <dbl>, DWS <dbl>, WS <dbl>,
## #   WS.48 <dbl>, OBPM <dbl>, DBPM <dbl>, BPM <dbl>, VORP <dbl>

  # 4
  select(wages, Player, NBA_Country:Tm)

## # A tibble: 485 x 5
##    Player              NBA_Country NBA_DraftNumber   Age Tm   
##    <fct>               <fct>                 <int> <int> <fct>
##  1 Zhou Qi             China                    43    22 HOU  
##  2 Zaza Pachulia       Georgia                  42    33 GSW  
##  3 Zach Randolph       USA                      19    36 SAC  
##  4 Zach LaVine         USA                      13    22 CHI  
##  5 Zach Collins        USA                      10    20 POR  
##  6 Yogi Ferrell        USA                      62    24 DAL  
##  7 Xavier Silas        USA                      62    30 BOS  
##  8 Xavier Rathan-Mayes Canada                   62    23 MEM  
##  9 Wilson Chandler     USA                      23    30 DEN  
## 10 Willy Hernangomez   Spain                    35    23 TOT  
## # ... with 475 more rows

  # 5
  mutate(wages, MPG = MP / G)

## # A tibble: 485 x 29
##    Player Salary NBA_Country NBA_DraftNumber   Age Tm        G    MP   PER
##    <fct>   <int> <fct>                 <int> <int> <fct> <int> <int> <dbl>
##  1 Zhou ~ 8.16e5 China                    43    22 HOU      16    87   0.6
##  2 Zaza ~ 3.48e6 Georgia                  42    33 GSW      66   937  16.8
##  3 Zach ~ 1.23e7 USA                      19    36 SAC      59  1508  17.3
##  4 Zach ~ 3.20e6 USA                      13    22 CHI      24   656  14.6
##  5 Zach ~ 3.06e6 USA                      10    20 POR      62   979   8.2
##  6 Yogi ~ 1.31e6 USA                      62    24 DAL      79  2238  11.5
##  7 Xavie~ 7.42e4 USA                      62    30 BOS       2     7  -4.9
##  8 Xavie~ 4.61e4 Canada                   62    23 MEM       5   118   0.9
##  9 Wilso~ 1.20e7 USA                      23    30 DEN      70  2200  11.1
## 10 Willy~ 1.44e6 Spain                    35    23 TOT      45   430  20.6
## # ... with 475 more rows, and 20 more variables: TS. <dbl>, X3PAr <dbl>,
## #   FTr <dbl>, ORB. <dbl>, DRB. <dbl>, TRB. <dbl>, AST. <dbl>, STL. <dbl>,
## #   BLK. <dbl>, TOV. <dbl>, USG. <dbl>, OWS <dbl>, DWS <dbl>, WS <dbl>,
## #   WS.48 <dbl>, OBPM <dbl>, DBPM <dbl>, BPM <dbl>, VORP <dbl>, MPG <dbl>

  # 6
  group_by(wages, Tm) %>%
    summarise(Team_salary = mean(Salary)) %>%
    arrange(desc(Team_salary))

## # A tibble: 31 x 2
##    Tm    Team_salary
##    <fct>       <dbl>
##  1 CLE     11215880.
##  2 WAS      9449678.
##  3 OKC      9417972.
##  4 HOU      8841351.
##  5 TOR      8759858.
##  6 GSW      8540607.
##  7 MIN      8426599.
##  8 CHO      8379766.
##  9 POR      8248284.
## 10 NOP      8221363.
## # ... with 21 more rows

  # 7
  group_by(wages, NBA_Country) %>%
    summarise(Country_salary = mean(Salary)) %>%
    arrange(desc(Country_salary))

## # A tibble: 44 x 2
##    NBA_Country      Country_salary
##    <fct>                     <dbl>
##  1 New Zealand           22471910 
##  2 Democratic Re_        20061729 
##  3 Slovenia              17000450 
##  4 Russia                15280000 
##  5 Senegal               14112360 
##  6 Dominican Rep...      13892202.
##  7 Italy                 13432830.
##  8 Poland                12782609 
##  9 Greece                12386635 
## 10 Montenegro            12375000 
## # ... with 34 more rows

  # 8
  filter(wages, NBA_Country == "USA") %>%
    mutate(Salary_per_MP = Salary / MP) %>% 
    group_by(Tm) %>%
    summarise(Team_salary_per_MP = mean(Salary_per_MP)) %>%
    arrange(desc(Team_salary_per_MP))

## # A tibble: 31 x 2
##    Tm    Team_salary_per_MP
##    <fct>              <dbl>
##  1 BOS              663533.
##  2 DAL               90667.
##  3 DEN               85452.
##  4 MIN               77141.
##  5 NOP               49845.
##  6 NYK               48503.
##  7 BRK               46740.
##  8 DET               43788.
##  9 SAS               14011.
## 10 OKC               13705.
## # ... with 21 more rows
…
